; Engine configuration file.
; It's best edited using the editor UI and not directly,
; since the parameters that go here are not all obvious.
;
; Format:
;   [section] ; section goes between []
;   param=value ; assign values to parameters

config_version=4

_global_script_classes=[  ]
_global_script_class_icons={

}

[application]

config/name="WGJ95-BadCooking"
run/main_scene="res://Scenes/Title.tscn"
boot_splash/image="res://Graphics/snek1.png"
boot_splash/bg_color=Color( 0.0588235, 0.054902, 0.054902, 1 )
config/icon="res://icon.png"

[autoload]

Main="*res://Scenes/Main.tscn"

[display]

window/size/height=768
window/stretch/mode="viewport"
window/stretch/aspect="keep"

[rendering]

quality/driver/driver_name="GLES2"
vram_compression/import_etc=true
vram_compression/import_etc2=false
environment/default_clear_color=Color( 0.0745098, 0.0705882, 0.0705882, 1 )
environment/default_environment="res://default_env.tres"
