[gd_scene load_steps=3 format=2]

[ext_resource path="res://Graphics/flame.png" type="Texture" id=1]

[sub_resource type="Animation" id=1]
resource_name = "Flicker"
length = 0.4
loop = true
tracks/0/type = "value"
tracks/0/path = NodePath("FireSprite:frame")
tracks/0/interp = 1
tracks/0/loop_wrap = true
tracks/0/imported = false
tracks/0/enabled = true
tracks/0/keys = {
"times": PoolRealArray( 0, 0.1, 0.2 ),
"transitions": PoolRealArray( 1, 1, 1 ),
"update": 1,
"values": [ 1, 2, 0 ]
}

[node name="Fire" type="Node2D"]

[node name="FireSprite" type="Sprite" parent="."]
texture = ExtResource( 1 )
hframes = 3

[node name="AnimationPlayer" type="AnimationPlayer" parent="."]
autoplay = "Flicker"
anims/Flicker = SubResource( 1 )
