[gd_scene load_steps=6 format=2]

[ext_resource path="res://Scripts/Station.gd" type="Script" id=1]
[ext_resource path="res://Graphics/workspace.png" type="Texture" id=2]
[ext_resource path="res://Scenes/Pot.tscn" type="PackedScene" id=3]
[ext_resource path="res://Scenes/Pan.tscn" type="PackedScene" id=4]
[ext_resource path="res://Scenes/Cut.tscn" type="PackedScene" id=5]

[node name="Station" type="Node2D"]
scale = Vector2( 3.25, 3.25 )
script = ExtResource( 1 )

[node name="Sprite" type="Sprite" parent="."]
texture = ExtResource( 2 )

[node name="HBoxContainer" type="HBoxContainer" parent="Sprite"]
margin_left = 2.98874
margin_top = 0.351616
margin_right = 42.9887
margin_bottom = 40.3516

[node name="Pot" parent="Sprite/HBoxContainer" instance=ExtResource( 3 )]
position = Vector2( 34.7683, -17.074 )
scale = Vector2( 1, 1 )

[node name="Pan" parent="Sprite/HBoxContainer" instance=ExtResource( 4 )]
position = Vector2( 0.336983, -16.9967 )
scale = Vector2( 1, 1 )

[node name="Cut" parent="Sprite/HBoxContainer" instance=ExtResource( 5 )]
position = Vector2( -34.4483, -41.1143 )
scale = Vector2( 1, 1 )
